{
  "src/lib/components/TranscriptionDisplay.react.js": {
    "description": "",
    "displayName": "TranscriptionDisplay",
    "methods": [],
    "props": {
      "id": {
        "type": {
          "name": "string"
        },
        "required": false,
        "description": "The ID used to identify this component in Dash callbacks."
      },
      "segment_info": {
        "type": {
          "name": "array"
        },
        "required": false,
        "description": "A list of dictionaries containing information about the segments"
      },
      "segment_chunks": {
        "type": {
          "name": "array"
        },
        "required": false,
        "description": "A list of dictionaries containing information about the relevancy of the segment chunks"
      },
      "seek": {
        "type": {
          "name": "number"
        },
        "required": false,
        "description": "The current \"seek\" of the video"
      },
      "setProps": {
        "type": {
          "name": "func"
        },
        "required": false,
        "description": "Dash-assigned callback that should be called to report property changes\r\nto Dash, to make them available for callbacks."
      }
    }
  }
}